…
words_by_album |>
  left_join(unique_words_album, by = "album_name") |>
  rename(words = n.x, unique_words = n.y, track_name = track_name.x) |>
  mutate(lexical_diversity = round(unique_words / words, 3)) |>
  arrange(desc(lexical_diversity)) |>
  select(album_name, track_name, lexical_diversity)
```

    ## # A tibble: 740 × 3
    ## # Groups:   album_name [6]
    ##    album_name                 track_name   lexical_diversity
    ##    <chr>                      <chr>                    <dbl>
    ##  1 Angles                     Metabolism                1.88
    ##  2 Angles                     Metabolism                1.81
    ##  3 Angles                     Metabolism                1.67
    ##  4 First Impressions Of Earth Killing Lies              1.54
    ##  5 First Impressions Of Earth Killing Lies              1.53
    ##  6 Angles                     Metabolism                1.51
    ##  7 Angles                     Metabolism                1.44
    ##  8 First Impressions Of Earth Killing Lies              1.37
    ##  9 Angles                     Games                     1.34
    ## 10 Angles                     Games                     1.29
    ## # … with 730 more rows
